<svg xmlns="http://www.w3.org/2000/svg" viewBox="0 0 216.15 286.64">
  <path id="path30" fill="#b9d6ed" d="M169.44 91l16.44-16 5.12 4.75 5 9.25c.06 2.28 0 4.56-.11 6.87l-12.63 9.21L169.44 91" transform="translate(0 -31.97)"/>
  <path id="path32" fill="#005da3" d="M168.65 90.14l16.44-15.93a1.14 1.14 0 0 1 1.58 0l5.07 4.72a1.08 1.08 0 0 1 .24.32l3.92 7.19c.1 1.66.14 3.33.13 5l-6-11-4.15-3.87L171.06 91l12.34 12.6 12.6-9.17c0 1-.1 1.95-.16 2.93l-11.9 8.64a1.14 1.14 0 0 1-1.49-.12l-13.82-14.13a1.14 1.14 0 0 1 0-1.61zm18-16" transform="translate(0 -31.97)"/>
  <path id="path34" fill="#ffffff" d="M143.4 33.61l18.92 19.22-2 2-18.95-19.21 2-2" transform="translate(0 -31.97)"/>
  <path id="path36" fill="#005da3" d="M143.81 33.21l18.9 19.2a.57.57 0 0 1 0 .8l-2 2a.57.57 0 0 1-.8 0L141 36a.58.58 0 0 1 0-.81l2-2a.58.58 0 0 1 .81 0zm17.7 19.61l-18.11-18.4-1.23 1.21L160.29 54l1.22-1.21" transform="translate(0 -31.97)"/>
  <path id="path38" fill="#b9d6ed" d="M159.7 49l26.14 26-3.31 3.28-26.14-25.99L159.7 49" transform="translate(0 -31.97)"/>
  <path id="path40" fill="#005da3" d="M160.3 48.41l26.15 26.05a.86.86 0 0 1 0 1.21L183.13 79a.86.86 0 0 1-1.21 0l-26.14-26.1a.86.86 0 0 1 0-1.21l3.31-3.28a.85.85 0 0 1 1.21 0zm24.33 26.65L159.7 50.22l-2.1 2.08 24.93 24.84 2.1-2.08" transform="translate(0 -31.97)"/>
  <path id="path42" fill="#b9d6ed" d="M132.39 50.45l.32-14.45 7.83-3c3-1.15 5.93 0 4.81 4.12l-3.93 18.14-9-4.77" transform="translate(0 -31.97)"/>
  <path id="path44" fill="#005da3" d="M131.82 50.44a.65.65 0 0 1 .06-.23zm0 0l.32-14.44a.58.58 0 0 1 .37-.52l7.82-3a5.72 5.72 0 0 1 3.46-.32 3.41 3.41 0 0 1 1.27.65 3 3 0 0 1 .85 1.21 5.24 5.24 0 0 1 0 3.2L142 55.34a.58.58 0 0 1-.68.44.48.48 0 0 1-.18-.07l-9-4.75a.56.56 0 0 1-.3-.52zm1.45-14L133 50.11l8 4.25L144.79 37a4.26 4.26 0 0 0 .06-2.52 1.89 1.89 0 0 0-.53-.75 2.24 2.24 0 0 0-.83-.42 4.6 4.6 0 0 0-2.75.29l-7.47 2.9zm12.64.8" transform="translate(0 -31.97)"/>
  <path id="path46" fill="#ffffff" d="M81.32 93.17l12.26-12.52 2 2-12.22 12.52-2-2" transform="translate(0 -31.97)"/>
  <path id="path48" fill="#005da3" d="M80.91 92.77l12.27-12.51a.56.56 0 0 1 .8 0l2 2a.57.57 0 0 1 0 .81l-12.22 12.5a.57.57 0 0 1-.8 0l-2-2a.57.57 0 0 1-.05-.8zm12.68-11.31l-11.47 11.7 1.23 1.21 11.47-11.71-1.23-1.2" transform="translate(0 -31.97)"/>
  <path id="path50" fill="#b9d6ed" d="M92.43 80.8l20-20.43 3.33 3.26-20 20.43-3.33-3.26" transform="translate(0 -31.97)"/>
  <path id="path52" fill="#005da3" d="M91.82 80.2l20-20.43a.85.85 0 0 1 1.21 0l3.35 3.23a.86.86 0 0 1 0 1.21l-20 20.43a.85.85 0 0 1-1.21 0l-3.34-3.24a.84.84 0 0 1-.01-1.2zm20.64-18.62l-18.82 19.2 2.1 2.07 18.83-19.2-2.11-2.07" transform="translate(0 -31.97)"/>
  <path id="path54" fill="#b9d6ed" d="M112.31 59.79l16-17.21L140 53.46l-16 17.21-11.69-10.88" transform="translate(0 -31.97)"/>
  <path id="path56" fill="#005da3" d="M111.69 59.21l16-17.2a.86.86 0 0 1 1.21 0l11.71 10.86a.86.86 0 0 1 0 1.21l-16 17.19a.85.85 0 0 1-1.21 0l-11.67-10.85a.85.85 0 0 1-.04-1.21zm16.63-15.42l-14.8 16L124 69.46l14.8-16-10.48-9.71" transform="translate(0 -31.97)"/>
  <path id="path58" fill="#b9d6ed" d="M79.64 93.7l4-.24 1.92 22.29-5.4.32-.52-22.37" transform="translate(0 -31.97)"/>
  <path id="path60" fill="#005da3" d="M79.57 92.57l4-.25a1.14 1.14 0 0 1 1.2 1.05l1.91 22.28a1.13 1.13 0 0 1-1 1.23h-.09l-5.33.32a1.16 1.16 0 0 1-1.26-1.06V116l-.47-22.3a1.13 1.13 0 0 1 1.07-1.16zm3 2.1l-1.75.1.42 20.09 3-.18-1.72-20" transform="translate(0 -31.97)"/>
  <path id="path62" fill="#b9d6ed" d="M80.17 116.56l12.33-8.23 6.33 5-5.63 12.3-8.68-.32-4.35-8.77" transform="translate(0 -31.97)"/>
  <path id="path64" fill="#005da3" d="M79.54 115.62l12.32-8.24a1.16 1.16 0 0 1 1.35.05l6.33 5a1.13 1.13 0 0 1 .3 1.42l-5.6 12.24a1.16 1.16 0 0 1-1.08.67l-8.68-.32a1.16 1.16 0 0 1-1-.64l-4.35-8.76a1.14 1.14 0 0 1 .39-1.45zm12.9-5.88L81.64 117l3.6 7.27 7.24.26 4.94-10.79-5-4" transform="translate(0 -31.97)"/>
  <path id="path66" fill="#fefefe" d="M143.43 55.85c-1.76-19.21-3.22-24-14.32-17.68L92.57 109c-2.83 4.69 1.35 9.94 6 4.27l44.85-57.46" transform="translate(0 -31.97)"/>
  <path id="path68" fill="#005da3" d="M142.25 55.51c-.84-9.15-1.62-14.87-3.41-17.43-1.5-2.14-4.13-1.75-8.87.91l-36.39 70.57v.07a4.32 4.32 0 0 0-.51 3.85 2 2 0 0 0 .63.85 1.46 1.46 0 0 0 .84.31c.85 0 1.95-.54 3.17-2l44.57-57.1zm-1.54-18.73c2.12 3 3 9.18 3.85 19a1.16 1.16 0 0 1-.24.81L99.48 114c-1.75 2.12-3.53 2.93-5 2.87a3.71 3.71 0 0 1-2.14-.77 4.29 4.29 0 0 1-1.34-1.78 6.58 6.58 0 0 1 .63-5.88l36.51-70.79a1.05 1.05 0 0 1 .47-.51c6.11-3.49 9.68-3.8 12.1-.36zm-43 75.83" transform="translate(0 -31.97)"/>
  <path id="path70" fill="#fefefe" d="M144.49 54.78c12.76 6.66 33.79 20.47 51.54 37-.1 10.53-2.14 21.31-4.18 32.75-14.43-21.12-32.9-41-54.85-59.68-9.75-8.3-2.5-16.91 7.49-10.07" transform="translate(0 -31.97)"/>
  <path id="path72" fill="#005da3" d="M145.1 53.81c11.72 6.13 30.33 18.22 47 32.87q2 1.75 3.93 3.54v3.1c-1.77-1.67-3.58-3.31-5.41-4.92C174 73.85 155.61 61.88 144 55.82l-.18-.1c-3.21-2.2-6-2.66-7.94-2a3.61 3.61 0 0 0-1.7 1.17 3.4 3.4 0 0 0-.68 1.92c-.11 2 1.11 4.57 4.21 7.2a319.69 319.69 0 0 1 47.1 48.91q3.79 5 7.3 10c-.19 1.07-.39 2.13-.58 3.21q-4-6-8.53-11.86a318 318 0 0 0-46.77-48.56c-3.7-3.15-5.15-6.43-5-9a5.61 5.61 0 0 1 1.15-3.19 5.79 5.79 0 0 1 2.78-1.94c2.52-.85 6.06-.35 9.91 2.27" transform="translate(0 -31.97)"/>
  <path id="path74" fill="#fefefe" d="M76.67 118.78c.13-1.41 1.64-7.13 5.81-7.79 5.55-.88 11.08 6 11.29 11 .13 3.3-.74 7.74-.74 12.23v32.3h-2l-2.57-4.08h-5c-44.14-14.77-39.51-48.24-6.76-43.57" transform="translate(0 -31.97)"/>
  <path id="path76" fill="#005da3" d="M75.75 117.5a13.91 13.91 0 0 1 2.16-4.79 6.82 6.82 0 0 1 4.4-2.84 7.55 7.55 0 0 1 .79-.08c2.82-.1 5.54 1.42 7.64 3.6a14.75 14.75 0 0 1 4 7.49 9.2 9.2 0 0 1 .1 1 45 45 0 0 1-.32 5.89c-.2 2-.41 4.17-.41 6.38v32.3a1.15 1.15 0 0 1-1.11 1.17h-2.01a1.15 1.15 0 0 1-.94-.53l-2.24-3.54h-4.38a1.19 1.19 0 0 1-.46-.1c-17.48-5.87-27.47-14.7-31.19-23a17.43 17.43 0 0 1-1.53-9.83 13.8 13.8 0 0 1 4.33-8c4.28-4 11.52-6.14 21.16-5zm4-3.42a11.09 11.09 0 0 0-1.93 4.79v.07a1.14 1.14 0 0 1-1.29 1c-9.44-1.35-16.4.55-20.37 4.25a11.52 11.52 0 0 0-3.63 6.73 15.25 15.25 0 0 0 1.36 8.55c3.48 7.78 13 16.11 29.74 21.75h4.84a1.14 1.14 0 0 1 1 .54l2.25 3.55h.24v-31.14c0-2.23.22-4.49.42-6.6a44.71 44.71 0 0 0 .32-5.58 6.94 6.94 0 0 0-.08-.77A12.42 12.42 0 0 0 89.2 115c-1.69-1.76-3.82-3-6-2.9a3.55 3.55 0 0 0-.57 0 4.7 4.7 0 0 0-2.92 2" transform="translate(0 -31.97)"/>
  <path id="path78" fill="#ffffff" d="M94.24 110.41a2.5 2.5 0 1 1-2.49 2.5 2.49 2.49 0 0 1 2.49-2.5" transform="translate(0 -31.97)"/>
  <path id="path80" fill="#005da3" d="M94.24 109.27a3.64 3.64 0 1 1-2.57 1.07 3.61 3.61 0 0 1 2.56-1.07zm1 2.68a1.39 1.39 0 0 0-1-.39 1.35 1.35 0 0 0-.95.39 1.35 1.35 0 0 0-.39 1 1.37 1.37 0 0 0 1.35 1.35 1.35 1.35 0 0 0 1.35-1.35 1.39 1.39 0 0 0-.39-1" transform="translate(0 -31.97)"/>
  <path id="path82" fill="#005da3" d="M76.35 119.21a.58.58 0 0 1 1.14-.16l6.11 43.26a.57.57 0 0 1-.49.64.58.58 0 0 1-.65-.49l-6.11-43.25" transform="translate(0 -31.97)"/>
  <path id="path84" fill="#b9d6ed" d="M82.84 91.22l17.3 9.79a2.65 2.65 0 0 1 1.33 3.26 2.5 2.5 0 0 1-3.65 1l-17.33-9.8a2.43 2.43 0 1 1 2.35-4.23" transform="translate(0 -31.97)"/>
  <path id="path86" fill="#005da3" d="M83.26 90.48l17.31 9.79a3.79 3.79 0 0 1 1.65 1.86 3.2 3.2 0 0 1 0 2.47l-.09.19-18.87-14.31zm16.46 11.28L82.42 92a1.66 1.66 0 0 0-1.81 0 1.6 1.6 0 0 0 .31 2.72l17.33 9.8.23.11a1.81 1.81 0 0 0 1.34.08 1.49 1.49 0 0 0 .8-.65l.07-.15a1.5 1.5 0 0 0 0-1.12 2.12 2.12 0 0 0-.91-1zM83.26 90.48zm17.34 9.81a.85.85 0 0 1 .29 1.14zm1.52 4.59a3.27 3.27 0 0 1-1.7 1.41 3.56 3.56 0 0 1-2.59-.13l-.43-.16-17.33-9.8a3.28 3.28 0 0 1-1.78-3.24 3.19 3.19 0 0 1 .4-1.29 3.29 3.29 0 0 1 .89-1h.06a3.26 3.26 0 0 1 3.65-.08l18.86 14.4zM80 96.17a.85.85 0 0 1-.25-1.17l.25 1.17" transform="translate(0 -31.97)"/>
  <path id="path88" fill="#ffffff" d="M81.64 92.41a1 1 0 1 1-1 1 .95.95 0 0 1 1-1" transform="translate(0 -31.97)"/>
  <path id="path90" fill="#005da3" d="M81.64 91.9a1.51 1.51 0 0 1 1 .43zm.36 1.15a.46.46 0 0 0-.31-.12.41.41 0 0 0-.43.43.42.42 0 0 0 .11.3.44.44 0 0 0 .31.13.42.42 0 0 0 .31-.13.41.41 0 0 0 .13-.31.44.44 0 0 0-.12-.3zm.73-.72a1.47 1.47 0 0 1 .43 1 1.51 1.51 0 0 1-.43 1 1.45 1.45 0 0 1-2 0 1.47 1.47 0 0 1-.4-1 1.43 1.43 0 0 1 .43-1 1.47 1.47 0 0 1 1-.43zm0 0" transform="translate(0 -31.97)"/>
  <path id="path92" fill="#ffffff" d="M99.25 102.33a1 1 0 0 1 0 1.9 1 1 0 0 1 0-1.9" transform="translate(0 -31.97)"/>
  <path id="path94" fill="#005da3" d="M99.25 101.81a1.51 1.51 0 0 1 1 .43zm.31 1.16a.43.43 0 0 0-.74.31.43.43 0 0 0 .12.3.43.43 0 0 0 .62 0 .4.4 0 0 0 .13-.3.41.41 0 0 0-.13-.28zm.73-.73a1.46 1.46 0 0 1 0 2.07 1.46 1.46 0 0 1-2 0 1.46 1.46 0 0 1 0-2 1.52 1.52 0 0 1 1-.4l1 .43zm0 0" transform="translate(0 -31.97)"/>
  <path id="path96" fill="#ffffff" d="M143 34.18a.95.95 0 1 1-1 1 1 1 0 0 1 1-1" transform="translate(0 -31.97)"/>
  <path id="path98" fill="#005da3" d="M143 33.67a1.43 1.43 0 0 1 1 .43 1.44 1.44 0 0 1 .41 1 1.51 1.51 0 0 1-.43 1 1.48 1.48 0 0 1-1 .41 1.47 1.47 0 0 1-1-.43 1.45 1.45 0 0 1 0-2 1.43 1.43 0 0 1 1.02-.41zm.31 1.15a.48.48 0 0 0-.31-.12.44.44 0 0 0-.3.11.44.44 0 1 0 .62 0" transform="translate(0 -31.97)"/>
  <path id="path100" fill="#ffffff" d="M137 55.22a1.78 1.78 0 1 1-1.82 1.78 1.78 1.78 0 0 1 1.82-1.78" transform="translate(0 -31.97)"/>
  <path id="path102" fill="#005da3" d="M137 54.71a2.3 2.3 0 0 1 1.62.67 2.29 2.29 0 0 1 0 3.23 2.29 2.29 0 0 1-3.24 0 2.27 2.27 0 0 1-.66-1.61 2.29 2.29 0 0 1 2.28-2.29zm.89 1.4a1.27 1.27 0 0 0-2.16.89 1.25 1.25 0 0 0 .37.89 1.26 1.26 0 0 0 2.15-.9 1.26 1.26 0 0 0-.36-.88" transform="translate(0 -31.97)"/>
  <path id="path104" fill="#005da3" d="M193.64 85.63a.58.58 0 0 1-.14-.8.59.59 0 0 1 .8-.13l1.56 1.1.09 1.45-2.31-1.62" transform="translate(0 -31.97)"/>
  <path id="path106" fill="#005da3" d="M123.32 49.63a.57.57 0 0 1-.53-.62.59.59 0 0 1 .62-.52c4.16.35 4.13 4.15 4.1 8.41s-.05 8.93 4.46 10.47c4.77 1.63 6.61-1.58 8.41-4.73 2-3.53 4-7 9.39-4.93a.57.57 0 0 1 .33.73.56.56 0 0 1-.74.33c-4.47-1.7-6.21 1.34-8 4.44-2 3.55-4.11 7.18-9.76 5.24-5.3-1.8-5.26-7-5.24-11.56 0-3.7 0-7-3.05-7.26" transform="translate(0 -31.97)"/>
  <path id="path108" fill="#005da3" d="M100.8 101.75a.57.57 0 0 1-1-.53l12.2-23.4c7-13.08 11-11.27 15.15-9.36a14.72 14.72 0 0 0 3 1.12c7.44 1.56 9.82-2.51 12-6.17s4.05-6.91 9.74-4.94a.57.57 0 0 1 .35.73.56.56 0 0 1-.72.35c-4.81-1.67-6.5 1.22-8.38 4.43-2.34 4-5 8.45-13.18 6.71a15.16 15.16 0 0 1-3.24-1.2c-3.72-1.72-7.21-3.32-13.72 8.81l-12.2 23.45" transform="translate(0 -31.97)"/>
  <path id="path110" fill="#005da3" d="M51.51 135.8a.52.52 0 1 1 .89-.52 39 39 0 0 0 12.47 12.66 44.15 44.15 0 0 0 17.31 6.63.51.51 0 0 1 .43.58.52.52 0 0 1-.58.44 45.24 45.24 0 0 1-17.72-6.79 40.05 40.05 0 0 1-12.8-13" transform="translate(0 -31.97)"/>
  <path id="path112" fill="#005da3" d="M147.74 61.09a.57.57 0 0 1 .59-1 261.21 261.21 0 0 1 42.38 31.43q2.64 2.43 5.16 4.91c0 .5-.06 1-.1 1.51q-2.84-2.82-5.83-5.58a260.59 260.59 0 0 0-42.2-31.29" transform="translate(0 -31.97)"/>
  <path id="path114" fill="#b9d6ed" d="M45.84 233.93l-.29-19.05 17-22.92 16.22 6.25 29-14.28 22.17 12.65 14.14-5.06L162.21 206l11.91-2.68 19.94 28.58-46.73 16.66-101.49-14.63" transform="translate(0 -31.97)"/>
  <path id="path116" fill="#005da3" d="M44.5 233.87l-.3-19a1.39 1.39 0 0 1 .27-.82l17-22.92a1.35 1.35 0 0 1 1.62-.43l15.61 6 28.49-14a1.37 1.37 0 0 1 1.32.07l21.58 12.31 13.56-4.85a1.33 1.33 0 0 1 1.33.25l17.61 14 11.23-2.48a1.35 1.35 0 0 1 1.45.62l19.89 28.5a1.35 1.35 0 0 1-.33 1.87 1.37 1.37 0 0 1-.32.16l-46.72 16.66a1.34 1.34 0 0 1-.71.06L45.65 235.26a1.33 1.33 0 0 1-1.15-1.39zm2.4-18.55l.27 17.44 100 14.37 44.76-16-18.42-26.38-11 2.47a1.33 1.33 0 0 1-1.13-.25l-17.57-14-13.43 4.81a1.36 1.36 0 0 1-1.11-.1l-21.56-12.3-28.37 14a1.32 1.32 0 0 1-1.07.05L63 193.59l-16.1 21.73" transform="translate(0 -31.97)"/>
  <path id="path118" fill="#005da3" d="M24.23 283.64l-3.11 8.17 15 10.28 144-1-5.38-16.32-150.5-1.15" transform="translate(0 -31.97)"/>
  <path id="path120" fill="#005da3" d="M25.15 285l-2.39 6.29 13.8 9.45 141.69-1-4.5-13.65L25.15 285zm-5.29 6.33l3.14-8.16a1.34 1.34 0 0 1 1.26-.87l150.4 1.14a1.37 1.37 0 0 1 1.38.93l5.38 16.32a1.41 1.41 0 0 1 .07.41 1.34 1.34 0 0 1-1.34 1.35l-143.9 1a1.36 1.36 0 0 1-.84-.23l-15-10.26a1.37 1.37 0 0 1-.53-1.61" transform="translate(0 -31.97)"/>
  <path id="path122" fill="#b9d6ed" d="M213 248.19l-49.07.29V232l32.32-4.12 16.75 18.3v2" transform="translate(0 -31.97)"/>
  <path id="path124" fill="#46638f" d="M212.89 249.53l-48.95.29a1.34 1.34 0 0 1-1.35-1.33V232a1.35 1.35 0 0 1 1.3-1.35l32.2-4.1a1.34 1.34 0 0 1 1.16.42L214 245.26a1.34 1.34 0 0 1 .35.92v2a1.36 1.36 0 0 1-1.35 1.35zm-47.6-2.4l46.37-.28v-.15l-15.92-17.37-30.45 3.88v13.92" transform="translate(0 -31.97)"/>
  <path id="path126" fill="#b9d6ed" d="M3 214.09l.81 3.59L18 223.47l17.77 21.59 4.56 7 102.93-2.64L129 228l-45.83-8.23-13.32-9.6-45.3-.83L3 214.09" transform="translate(0 -31.97)"/>
  <path id="path128" fill="#005da3" d="M4.62 215.12l.38 1.57 13.56 5.53a1.44 1.44 0 0 1 .59.47l17.68 21.51.09.12 4.14 6.35 99.75-2.56-12.63-18.85-45.27-8.12a1.36 1.36 0 0 1-.55-.24l-13-9.36-44.7-.82zM2.5 218l-.79-3.5v-.1a1.35 1.35 0 0 1 1-1.6l21.53-4.71h.3l45.3.83a1.28 1.28 0 0 1 .76.25l13.08 9.42 45.48 8.17a1.34 1.34 0 0 1 .93.58l14.3 21.35a1.37 1.37 0 0 1 .23.72 1.34 1.34 0 0 1-1.32 1.37l-102.9 2.65a1.35 1.35 0 0 1-1.16-.61l-4.51-6.91L17.2 224.6l-13.89-5.67a1.35 1.35 0 0 1-.81-.93" transform="translate(0 -31.97)"/>
  <path id="path130" fill="#005da3" d="M31.66 241.16a.56.56 0 0 1-.59-.54.59.59 0 0 1 .55-.6l55.73-2.15a.58.58 0 0 1 .59.55.56.56 0 0 1-.55.59l-55.73 2.15" transform="translate(0 -31.97)"/>
  <path id="path132" fill="#fefefe" d="M56.67 216.48l-.57 4.86.35 1 14.35 19.41h1.88l-.11-3.25-15.69-22.12-.21.1" transform="translate(0 -31.97)"/>
  <path id="path134" fill="#005da3" d="M57.31 218.46l-.31 2.78.24.66 13.46 18.27.52.7h.56l-.07-2-.06-.21zm-2.06 2.78l.51-4.35v-.07a1.35 1.35 0 0 1 .49-1.11c.5-.35 1-.28 1.53.47l15.32 21.59a.84.84 0 0 1 .13.27l.13.44a1.57 1.57 0 0 1 0 .23l.1 3a.87.87 0 0 1-.85.87h-1.87a.86.86 0 0 1-.7-.35l-.16-.21-.61-.83-13.48-18.33a.92.92 0 0 1-.16-.27l-.34-1a.81.81 0 0 1 0-.38" transform="translate(0 -31.97)"/>
  <path id="path136" fill="#fefefe" d="M33.38 217.74L32.23 223l15.25 20.51h1.88l-.11-3.25-15.87-22.52" transform="translate(0 -31.97)"/>
  <path id="path138" fill="#005da3" d="M33.8 219.84l-.65 3 14.76 19.84h.57l-.08-2.11zm-2.42 3l1.15-5.28a.85.85 0 0 1 .34-.53.86.86 0 0 1 1.2.21L50 239.77a.82.82 0 0 1 .15.47l.11 3.23a.85.85 0 0 1-.85.87h-1.87a.88.88 0 0 1-.7-.35l-15.27-20.41a.88.88 0 0 1-.19-.74" transform="translate(0 -31.97)"/>
  <path id="path140" fill="#005da3" d="M22.09 223.76a.58.58 0 0 1 .07-.81.57.57 0 0 1 .8.08l12 14.44a.57.57 0 0 1-.07.8.56.56 0 0 1-.8-.07l-12-14.44" transform="translate(0 -31.97)"/>
  <path id="path142" fill="#fefefe" d="M74.86 216.16l1.47 4.8-57.69 2.44-.25-4.5 13.67-3 24-1.76 18.8 2.06" transform="translate(0 -31.97)"/>
  <path id="path144" fill="#005da3" d="M75.41 216l1.46 4.8a.57.57 0 0 1-.38.71h-.14L18.66 224a.56.56 0 0 1-.59-.54l-.25-4.5a.59.59 0 0 1 .49-.6l13.63-3H32l24-1.76h.12l18.78 2.05a.57.57 0 0 1 .51.35zm.16 4.43l-1.14-3.74-18.38-2-23.92 1.76-13.13 2.9.19 3.46 56.39-2.39" transform="translate(0 -31.97)"/>
  <path id="path146" fill="#fefefe" d="M19.14 213.82l9.26 3.76 3.1 4.54h1.47l-.4-5.77-11-4-2.42 1.49" transform="translate(0 -31.97)"/>
  <path id="path148" fill="#005da3" d="M21 213.66l7.69 3.13a.79.79 0 0 1 .41.35l2.9 4.13h.09l-.3-4.29-10.09-3.72zm6.81 4.62l-9-3.66a.82.82 0 0 1-.4-.34.84.84 0 0 1 .28-1.17l2.37-1.47a.85.85 0 0 1 .79-.1l11 4a.84.84 0 0 1 .59.75l.41 5.77v.08a.86.86 0 0 1-.85.86h-1.48a.85.85 0 0 1-.69-.37l-2.95-4.32" transform="translate(0 -31.97)"/>
  <path id="path150" fill="#46638f" d="M87.43 237.87a.85.85 0 1 1 .69 1.56l-22.52 10a.88.88 0 0 1-.32.07l-20.12.89a.91.91 0 0 1-.56-.18l-12.73-9.74a.86.86 0 0 1-.16-1.2.85.85 0 0 1 1.2-.16l12.48 9.55 19.66-.86 22.38-10" transform="translate(0 -31.97)"/>
  <path id="path152" fill="#005da3" d="M25.52 263.71c3 .11 5.63-.11 8.34 0 11.64.44 21.07 12.53 21.07 27s-9.44 26.22-21.07 26.2h-8.34c-11.64 0-21.08-12.09-21.08-27s9.44-26.63 21.08-26.19" transform="translate(0 -31.97)"/>
  <path id="path154" fill="#005da3" d="M25.57 262.28c1.52.06 2.94 0 4.31 0h4c6.26.24 11.91 3.58 16 8.79a32 32 0 0 1 6.48 19.63 31.07 31.07 0 0 1-6.49 19.39c-4.07 5.07-9.72 8.2-16 8.2h-8.35c-6.28 0-11.95-3.24-16-8.46A32.59 32.59 0 0 1 3 289.9v-1.37A31.14 31.14 0 0 1 9.64 270l.08-.09c3.93-4.74 9.26-7.63 15.17-7.63h.68zm4.37 2.85c-1.43 0-2.89.06-4.47 0h-.6c-5 0-9.57 2.5-13 6.6l-.05.07a28.27 28.27 0 0 0-6 16.84v1.27a29.7 29.7 0 0 0 5.87 18.22c3.54 4.54 8.42 7.35 13.78 7.35h8.37c5.35 0 10.21-2.72 13.75-7.12a28.2 28.2 0 0 0 5.87-17.61 29.19 29.19 0 0 0-5.86-17.88c-3.56-4.56-8.45-7.49-13.83-7.69-1.29-.05-2.56 0-3.87 0" transform="translate(0 -31.97)"/>
  <path id="path156" fill="#fefefe" d="M16.42 279.9l-9.24-8.1v-4.15l12.12-15.29 17.85.83-3.38 15.95-17.35 10.76" transform="translate(0 -31.97)"/>
  <path id="path158" fill="#005da3" d="M15.86 280.54l-9.24-8.09a.84.84 0 0 1-.29-.65v-4.15a.86.86 0 0 1 .23-.58l12.08-15.24a.82.82 0 0 1 .7-.32l17.86.83a.85.85 0 0 1 .81.89.88.88 0 0 1 0 .17l-3.41 15.92a.79.79 0 0 1-.43.57l-17.3 10.73a.85.85 0 0 1-1.01-.08zM8 271.42l8.47 7.42L33 268.61 36.1 254l-16.41-.76L8 267.94v3.48" transform="translate(0 -31.97)"/>
  <path id="path160" fill="#b9d6ed" d="M7.65 294.89c.19-1.71.38-3.43.56-5.15l23.42-.23q11.7-.11 23.41-.24h4.07v5.64H7.65" transform="translate(0 -31.97)"/>
  <path id="path162" fill="#005da3" d="M6.8 294.8l.56-5.15a.86.86 0 0 1 .87-.76l23.39-.23 11.71-.12 11.67-.12h4.06a.86.86 0 0 1 .86.85v5.64a.85.85 0 0 1-.85.85H7.65a.85.85 0 0 1-.85-.85zm2.2-4.21L8.61 294h49.64v-3.9h-3.2l-11.71.12-11.7.12-22.64.25" transform="translate(0 -31.97)"/>
  <path id="path164" fill="#b9d6ed" d="M210.94 246.77l-5.08-2.35-9.79-8.14q-7.57 6.87-15.15 13.84-1.66 3.48-3.3 7l-13-.52-54.52-2.65-13.41-3.66-21.79-1.47L49 259.19l-16.83-19.27L45 249.86l19.39-1.27 23.35-9.87-13.24-17.17 3.92-.07-4.78-9.14 2.55 1 21.3 24.89c16.22-2 32.43-3.92 48.64-5.73s32.45-3.5 48.68-5.17q7.86 5.74 15.74 11.39l.39 8.07" transform="translate(0 -31.97)"/>
  <path id="path166" fill="#005da3" d="M210.55 247.53l-5.05-2.33a.86.86 0 0 1-.22-.15l-9.18-7.64c-2.77 2.51-5.17 4.7-7 6.4-2.6 2.38-5.09 4.66-7.44 6.83L180 254l-1.62 3.43a.87.87 0 0 1-.81.49l-13-.51-54.57-2.65a.57.57 0 0 1-.18 0l-13.3-3.66L75 249.69 49.26 260a.86.86 0 0 1-1-.23l-16.74-19.29a.87.87 0 0 1 .08-1.21.88.88 0 0 1 1.15 0L45.28 249l18.94-1.24 22.18-9.38-12.57-16.31a.86.86 0 0 1 .15-1.2.87.87 0 0 1 .51-.17h2.53l-4.13-7.92a.85.85 0 0 1 1.11-1.24l2.54 1a.86.86 0 0 1 .34.25l21 24.54q11.94-1.45 23.88-2.88t24.32-2.8c8-.89 16.15-1.77 24.34-2.64s16.23-1.7 24.34-2.53a.85.85 0 0 1 .62.19l7.84 5.69q4 2.91 7.87 5.66a.87.87 0 0 1 .36.66l.39 8.07a.85.85 0 0 1-.81.89.91.91 0 0 1-.44-.09zm-4.24-3.84l3.69 1.71-.3-6.25q-3.87-2.76-7.55-5.43c-2.22-1.6-4.8-3.49-7.6-5.52l-24 2.49q-12 1.27-24.32 2.64c-8 .89-16.14 1.84-24.32 2.8s-16.21 2-24.32 2.93a.88.88 0 0 1-.75-.29L75.68 214l-.23-.09 3.72 7.12a.87.87 0 0 1 .1.39.84.84 0 0 1-.84.86h-2.21l12.21 15.82a.72.72 0 0 1 .11.19.86.86 0 0 1-.45 1.12l-23.29 9.94a.9.9 0 0 1-.33.09l-19.4 1.27a.8.8 0 0 1-.57-.17l-6-4.62 10.7 12.25 25.33-10.12A.87.87 0 0 1 75 248l21.72 1.43a.76.76 0 0 1 .21 0l13.33 3.63 54.41 2.65 12.45.49 1.39-2.92v-.05l1.66-3.47a.83.83 0 0 1 .19-.26q4-3.67 7.58-7l7.57-6.91a.86.86 0 0 1 1.12 0l9.7 8.07" transform="translate(0 -31.97)"/>
  <path id="path168" fill="#005da3" d="M107.46 250.35l71.41 3.59.57 6.53h-71.33l-.65-10.12" transform="translate(0 -31.97)"/>
  <path id="path170" fill="#005da3" d="M107.58 249l71.35 3.59a1.35 1.35 0 0 1 1.28 1.23l.57 6.53a1.36 1.36 0 0 1-1.23 1.46h-71.44a1.34 1.34 0 0 1-1.35-1.35l-.65-10a1.35 1.35 0 0 1 1.26-1.43zm70.05 6.22l-68.73-3.46.47 7.35H178l-.34-3.89" transform="translate(0 -31.97)"/>
  <path id="path172" fill="#b9d6ed" d="M68.23 289.26l31.71.59 31.71.58 31.71.58 31.74.57c0-2.79-.06-5.6-.07-8.4s0-5.62-.05-8.42-.06-5.61-.07-8.42a47.09 47.09 0 0 0-.82-8.42l-26-1.13-25.88-1.16-25.79-1.1q-12.87-.54-25.72-1.11l-14.35 6c-4.07 1.39-5 7.25-5.25 8.74-.48 3.52-1 7-1.45 10.55s-1 7-1.43 10.54" transform="translate(0 -31.97)"/>
  <path id="path174" fill="#005da3" d="M69.2 288.43l14.9.28 15.9.29 24.29.45 7.43.13 31.7.59 12.83.23 18 .32v-1.58c0-2 0-4-.05-5.95v-12.01-4.83c0-1.36-.08-2.73-.22-4.11-.11-1.15-.27-2.31-.47-3.47l-5.86-.25-19.44-.85-12.19-.54-13.7-.61-12.9-.56-12.89-.55-12.86-.54-12.66-.55-14.18 5.93h-.06c-3.42 1.17-4.34 6.24-4.64 7.88v.17l-.48 3.49c-.34 2.44-.68 4.86-1 7.05l-.7 5.15zm14.87 2l-15.85-.3h-.1a.86.86 0 0 1-.74-1c.25-1.89.5-3.65.74-5.4l.7-5.15c.33-2.5.65-4.79 1-7.05l.48-3.49v-.21c.34-1.87 1.39-7.66 5.74-9.17l14.33-6a.94.94 0 0 1 .37-.07l12.85.56 12.86.55 12.89.54 12.9.56 13.69.61 12.19.55 19.44.84 6.54.28a.86.86 0 0 1 .81.7c.26 1.42.47 2.85.61 4.29s.22 2.85.23 4.27v16.84c0 2 0 4 .05 5.93v2.43a.86.86 0 0 1-.87.84l-18.91-.33-12.84-.24-31.7-.58-7.42-.13-24.3-.45-15.85-.28" transform="translate(0 -31.97)"/>
  <path id="path176" fill="#005da3" d="M201.15 268.64c-8.28.26-16.86-.44-25.15.38-8.8.88-18.62 3.86-25.16.11 1.21-1.76 2.48-3.53 3.78-5.29s2.65-3.52 4.09-5.29l16.63.17 16.64.17a17.12 17.12 0 0 0 3.9 4.88c1.77 1.65 3.63 3.25 5.27 4.87" transform="translate(0 -31.97)"/>
  <path id="path178" fill="#005da3" d="M201.14 270c-3.19.1-6.44.05-9.69 0a136.91 136.91 0 0 0-15.32.36c-2 .2-4.19.53-6.35.86-7.12 1.08-14.22 2.17-19.61-.92a1.35 1.35 0 0 1-.5-1.84l.09-.14c.59-.85 1.2-1.73 1.84-2.61.53-.75 1.19-1.65 1.94-2.66s1.31-1.76 2-2.67 1.44-1.84 2.12-2.67a1.31 1.31 0 0 1 1.15-.49l16.53.17 16.64.17a1.32 1.32 0 0 1 1.2.76 11.55 11.55 0 0 0 1.42 2.18 24.21 24.21 0 0 0 2.18 2.3l1.91 1.73c1.18 1.07 2.36 2.14 3.39 3.16a1.35 1.35 0 0 1-1 2.31zm-9.66-2.68c2.12 0 4.24.06 6.34 0l-.93-.83-1.89-1.73a25.15 25.15 0 0 1-2.43-2.57 15.52 15.52 0 0 1-1.37-2l-15.83-.16-16-.17c-.6.75-1.16 1.45-1.67 2.12-.66.85-1.32 1.73-2 2.63-.55.74-1.19 1.61-1.91 2.62l-.94 1.33c4.47 1.79 10.5.87 16.53-.05 2.14-.32 4.29-.65 6.48-.87a140.16 140.16 0 0 1 15.62-.37zm-41.72 1a1.36 1.36 0 0 1 1.75-.36zm0 .05v-.05.05" transform="translate(0 -31.97)"/>
  <path id="path180" fill="#005da3" d="M182 265.45c11.65.43 21.1 11.86 21.1 25.49s-9.44 24.71-21.1 24.71c-.59 0-1.17 0-1.74-.08a19.51 19.51 0 0 1-7.06 1.33c-27.68 0-29.09-46.71-4.3-50.67a106.72 106.72 0 0 1 13.1-.78" transform="translate(0 -31.97)"/>
  <path id="path182" fill="#005da3" d="M182.08 264a22 22 0 0 1 16 8.31 29.28 29.28 0 0 1 6.51 18.61 28.34 28.34 0 0 1-6.52 18.4 21.07 21.07 0 0 1-16 7.74h-1.54a20.76 20.76 0 0 1-3.41 1 21.63 21.63 0 0 1-3.85.36c-9.67 0-16.34-5.33-20-12.65a32.21 32.21 0 0 1-3.22-12 34.69 34.69 0 0 1 1.35-12.45c2.51-8.21 8.29-14.92 17.34-16.36 1.43-.23 4-.45 6.59-.61s5.36-.35 6.75-.35zm13.77 10.13a19.07 19.07 0 0 0-13.85-7.26c-1.28-.05-3.9 0-6.52.2s-5 .36-6.31.57c-7.82 1.25-12.85 7.15-15.06 14.38a31.19 31.19 0 0 0-1.23 11.42 29.43 29.43 0 0 0 2.91 11c3.21 6.4 9 11.06 17.46 11.06a17.23 17.23 0 0 0 3.32-.31 17.94 17.94 0 0 0 3.22-.92 1.43 1.43 0 0 1 .66-.09c.25 0 .52.05.8.06h.8a18.22 18.22 0 0 0 13.84-6.73 25.49 25.49 0 0 0 5.83-16.55 26.44 26.44 0 0 0-5.85-16.79" transform="translate(0 -31.97)"/>
  <path id="path184" fill="#005da3" d="M145.06 256.65l5.54.29 5.55.28c-.05 1 0 1.95-.15 2.91s-.37 1.94-.49 2.91c-1.75-.06-3.49-.13-5.24-.18l-5.23-.15c-1.33-.09-2-1.44-2.08-2.85a3 3 0 0 1 2.1-3.21" transform="translate(0 -31.97)"/>
  <path id="path186" fill="#005da3" d="M145.09 256.08l5.54.29 5.55.28a.58.58 0 0 1 .54.6v.91c0 .66 0 1.34-.12 2s-.16 1.06-.26 1.58c-.08.44-.17.88-.23 1.32a.57.57 0 0 1-.58.5l-2.75-.1-2.49-.08-3.47-.1-1.76-.05a2.48 2.48 0 0 1-1.88-1.07 4.27 4.27 0 0 1-.72-2.31 4.34 4.34 0 0 1 .65-2.45 3 3 0 0 1 1.86-1.3zm5.48 1.43l-5.46-.29a1.92 1.92 0 0 0-1.1.8 3.35 3.35 0 0 0 0 3.46 1.39 1.39 0 0 0 1 .6l1.74.05 3.48.1 2.48.08 2.25.08c0-.29.11-.58.16-.88.1-.5.19-1 .25-1.5s.1-1.29.12-1.94v-.36l-5-.26" transform="translate(0 -31.97)"/>
  <path id="path188" fill="#005da3" d="M74.13 260l12.43-12.19L108.5 249l11 18.12-6.83-.78-5.8-1.62-7.35-4.6-21.09 6.1-4.3-6.22" transform="translate(0 -31.97)"/>
  <path id="path190" fill="#005da3" d="M73.53 259.42L86 247.23a.86.86 0 0 1 .65-.25l21.94 1.18a.87.87 0 0 1 .69.41l11 18.12a.87.87 0 0 1-.3 1.18.83.83 0 0 1-.53.11l-6.84-.78h-.19l-5.74-1.6a.71.71 0 0 1-.26-.13l-7-4.38-20.72 6a.85.85 0 0 1-.94-.33l-4.28-6.2a.86.86 0 0 1 .05-1.14zm13.36-10.71l-11.65 11.43 3.52 5.1 20.5-5.93a.83.83 0 0 1 .68.1l7.24 4.53 5.61 1.56 5 .58-9.79-16.24-21.12-1.13zm19.46 16.72a.87.87 0 0 1-.34-.93l.34.93" transform="translate(0 -31.97)"/>
  <path id="path192" fill="#fefefe" d="M33.35 225v1.28l2.18 3.68 2.51-1v-2.9l-2.41-3.3-2.32.08V225" transform="translate(0 -31.97)"/>
  <path id="path194" fill="#005da3" d="M33.92 225v1.12l1.85 3.13 1.71-.68v-2.33l-2.12-2.9h-1.47V225zm-1.15 1.28v-3.48a.57.57 0 0 1 .55-.57l2.32-.08a.54.54 0 0 1 .48.23l2.4 3.29a.56.56 0 0 1 .12.36v2.9a.57.57 0 0 1-.36.52l-2.48 1a.56.56 0 0 1-.73-.22l-2.16-3.64a.55.55 0 0 1-.11-.33" transform="translate(0 -31.97)"/>
  <path id="path196" fill="#ffffff" d="M34.23 227a2 2 0 0 1 1-.34 2 2 0 0 1 1 .48v36.12h-2V227" transform="translate(0 -31.97)"/>
  <path id="path198" fill="#005da3" d="M34 226.49a4.11 4.11 0 0 1 .56-.27 2.18 2.18 0 0 1 .72-.13 1.76 1.76 0 0 1 .71.2 4.72 4.72 0 0 1 .55.36.56.56 0 0 1 .23.46v36.12a.58.58 0 0 1-.58.57h.01-2a.58.58 0 0 1-.56-.57V227a.57.57 0 0 1 .36-.51zm1 .8l-.12.06v35.3h.88v-35.22l-.17-.1a.9.9 0 0 0-.28-.09 1.09 1.09 0 0 0-.28.06" transform="translate(0 -31.97)"/>
  <path id="path200" fill="#b9d6ed" d="M32.78 236a6.41 6.41 0 0 1 2.46-.53 6.06 6.06 0 0 1 2.46.79v28.3l-2.46-.08-2.46-.08V236" transform="translate(0 -31.97)"/>
  <path id="path202" fill="#005da3" d="M32.48 235.2a10.35 10.35 0 0 1 1.3-.42 5.61 5.61 0 0 1 1.42-.14 5.32 5.32 0 0 1 1.48.29 10.31 10.31 0 0 1 1.33.58.88.88 0 0 1 .48.77v28.3a.87.87 0 0 1-.86.86h-1.26l-1.23-.05-2.46-.08a.85.85 0 0 1-.82-.85V236a.86.86 0 0 1 .62-.8zm1.73 1.24c-.19 0-.38.1-.57.16v27l1.63.06h1.57v-26.87l-.65-.26a3.56 3.56 0 0 0-1-.2 3.67 3.67 0 0 0-1 .1" transform="translate(0 -31.97)"/>
  <path id="path204" fill="#fefefe" d="M56.93 224.41v1.28l2.19 3.68 2.51-1v-2.9l-2.41-3.31-2.33.09v2.16" transform="translate(0 -31.97)"/>
  <path id="path206" fill="#005da3" d="M57.51 224.41v1.12l1.85 3.13 1.7-.68v-2.33l-2.06-2.9-1.47.05zm-1.15 1.28v-3.44a.57.57 0 0 1 .56-.57l2.32-.08a.56.56 0 0 1 .48.23l2.4 3.29a.62.62 0 0 1 .12.36v2.89a.59.59 0 0 1-.36.53l-2.48 1a.57.57 0 0 1-.74-.22L56.47 226a.55.55 0 0 1-.11-.33" transform="translate(0 -31.97)"/>
  <path id="path208" fill="#ffffff" d="M57.93 225.69a1.48 1.48 0 0 1 2 .13v36.12h-2v-36.2" transform="translate(0 -31.97)"/>
  <path id="path210" fill="#005da3" d="M57.68 225.18a3.11 3.11 0 0 1 .55-.27 1.77 1.77 0 0 1 .72-.13 2 2 0 0 1 .72.2 4.39 4.39 0 0 1 .56.36.55.55 0 0 1 .22.45v36.12a.57.57 0 0 1-.57.57H57.81a.56.56 0 0 1-.55-.56v-36.2a.57.57 0 0 1 .42-.54zm1 .8l-.13.05v35.3h.88v-35.21l-.17-.1a.7.7 0 0 0-.28-.09.79.79 0 0 0-.28.06" transform="translate(0 -31.97)"/>
  <path id="path212" fill="#b9d6ed" d="M56.48 234.69a6 6 0 0 1 2.45-.53 6.14 6.14 0 0 1 2.46.78v28.31l-2.46-.08-2.45-.09v-28.39" transform="translate(0 -31.97)"/>
  <path id="path214" fill="#005da3" d="M56.18 233.88a10.44 10.44 0 0 1 1.31-.41 5.65 5.65 0 0 1 1.51-.17 5 5 0 0 1 1.47.3 10.43 10.43 0 0 1 1.34.58.85.85 0 0 1 .47.76v28.31a.86.86 0 0 1-.86.86h-2.51l-2.46-.08a.87.87 0 0 1-.83-.86v-28.48a.86.86 0 0 1 .56-.81zm1.72 1.25c-.19 0-.38.1-.57.16v27l1.63.05 1.23.05h.35v-26.91a6.77 6.77 0 0 0-.65-.26 3.66 3.66 0 0 0-1-.21 4.21 4.21 0 0 0-1 .11" transform="translate(0 -31.97)"/>
  <path id="path216" fill="#b9d6ed" d="M75.05 263.36l6.88-10.76-6.71-2.92L47 251.35l-2.5 24.74 3.76 11.78h36.59l-9.8-24.51" transform="translate(0 -31.97)"/>
  <path id="path218" fill="#005da3" d="M74.09 262.75l6.17-9.63-5.26-2.29-27 1.6L45.66 276l3.43 10.76h34.07l-9.16-23a1.13 1.13 0 0 1 .09-1.01zm8.8-9.53l-6.56 10.26 9.54 23.88a1.07 1.07 0 0 1 .12.51 1.14 1.14 0 0 1-1.14 1.13H48.26a1.13 1.13 0 0 1-1.08-.8l-3.76-11.77a1 1 0 0 1-.05-.47l2.5-24.71a1.16 1.16 0 0 1 1.07-1l28.21-1.67a1 1 0 0 1 .53.09l6.71 2.93.15.08a1.15 1.15 0 0 1 .35 1.54zm-7.74-4.68" transform="translate(0 -31.97)"/>
  <path id="path220" fill="#fefefe" d="M20.23 252.6L47 251.35l-1.27 12.75v12.3l2.5 11.47H17.72l-2.51-11.62 1.21-12 3.81-11.65" transform="translate(0 -31.97)"/>
  <path id="path222" fill="#005da3" d="M20.24 251.46L47 250.21a1.15 1.15 0 0 1 1.19 1.09.81.81 0 0 1 0 .16l-1.27 12.69v12.09l2.49 11.37a1.15 1.15 0 0 1-.91 1.39H17.72a1.14 1.14 0 0 1-1.13-.95l-2.49-11.56a1 1 0 0 1 0-.42l1.19-11.94a2 2 0 0 1 .05-.24l3.81-11.64a1.16 1.16 0 0 1 1.09-.79zm25.5 1.09l-24.67 1.16-3.53 10.78-1.17 11.69 2.27 10.55h28.2l-2.2-10.09a1.94 1.94 0 0 1 0-.24V264zm-1.15 11.61" transform="translate(0 -31.97)"/>
  <path id="path224" fill="#005da3" d="M122.46 255.17l12.75.62-.79 6.27-11.9-.34c-3.12-.21-3.45-5.85-.06-6.55" transform="translate(0 -31.97)"/>
  <path id="path226" fill="#005da3" d="M122.48 254.6l12.74.62a.57.57 0 0 1 .55.59v.07l-.79 6.25a.56.56 0 0 1-.58.5l-11.9-.34a3 3 0 0 1-2.51-1.7 4.59 4.59 0 0 1-.49-1.81 4.75 4.75 0 0 1 .28-1.87 3.48 3.48 0 0 1 2.58-2.27zm12.08 1.73l-12-.59a2.34 2.34 0 0 0-1.68 1.54 3.58 3.58 0 0 0-.21 1.42 3.38 3.38 0 0 0 .36 1.35 1.93 1.93 0 0 0 1.57 1.09l11.37.33zm1.21-.48" transform="translate(0 -31.97)"/>
  <path id="path228" fill="#b9d6ed" d="M146.64 290.84l-14.32-.26-62.38-1.15-10.83-.19v5.64l68.53 1 19 .28v-5.32" transform="translate(0 -31.97)"/>
  <path id="path230" fill="#005da3" d="M145.78 291.68l-13.47-.25-9.28-.17-53.1-1-10-.17V294l67.69 1 18.13.26v-3.61zm-13.44-2l14.25.26a.86.86 0 0 1 .85.86v5.32a.84.84 0 0 1-.86.84l-19-.27-68.47-1a.86.86 0 0 1-.86-.85v-5.64a.86.86 0 0 1 .87-.84l10.84.2 53.1 1 9.28.17" transform="translate(0 -31.97)"/>
  <path id="path232" fill="#005da3" d="M108.69 300c8.37.12 31.78.24 40.15.36v-31c-4.54-.19-12.2-.76-19.77-.94-6.4-.16-12.79.08-16.62-.08v27.46l-3.76 4.2" transform="translate(0 -31.97)"/>
  <path id="path234" fill="#005da3" d="M111.22 298.88c4.45.05 11 .11 17.55.15 7.27.06 14.55.12 18.93.17v-28.73l-4.82-.26c-4.1-.24-9-.52-13.84-.63-3.23-.08-6.47-.06-9.36 0h-6.09v26.29a1.13 1.13 0 0 1-.35.83zm17.54 2.43c-7.91-.06-15.84-.12-20-.18a1.12 1.12 0 0 1-.8-.29 1.14 1.14 0 0 1-.09-1.61l3.47-3.84v-27.05a1.15 1.15 0 0 1 1.18-1.09c1.88.08 4.38.06 7.18 0s6.18 0 9.42 0c4.94.12 9.84.4 13.92.63 2.23.13 4.23.24 5.77.31h.06a1.15 1.15 0 0 1 1.15 1.15v31a1.13 1.13 0 0 1-1.15 1.12c-4.19-.06-12.13-.12-20.07-.18" transform="translate(0 -31.97)"/>
  <path id="path236" fill="#005da3" d="M89 260.93c12.25.46 22.17 13.19 22.17 28.4S101.25 316.91 89 316.9s-22.18-12.72-22.18-28.41 9.93-28 22.18-27.56" transform="translate(0 -31.97)"/>
  <path id="path238" fill="#005da3" d="M89.06 259.51c6.56.24 12.48 3.75 16.74 9.21a33.59 33.59 0 0 1 6.81 20.61 32.62 32.62 0 0 1-6.81 20.36c-4.27 5.31-10.2 8.59-16.76 8.59-6.59 0-12.53-3.39-16.81-8.87a34.23 34.23 0 0 1-6.8-21v-1.44a32.75 32.75 0 0 1 6.93-19.47c4.13-5 9.75-8.09 16-8.09h.72zm14.5 11c-3.76-4.82-8.92-7.91-14.6-8.12h-.62c-5.34 0-10.19 2.66-13.78 7a29.88 29.88 0 0 0-6.29 17.76v1.34a31.26 31.26 0 0 0 6.19 19.21c3.74 4.8 8.89 7.77 14.56 7.77 5.65 0 10.8-2.88 14.54-7.54a29.72 29.72 0 0 0 6.18-18.57 30.77 30.77 0 0 0-6.19-18.86" transform="translate(0 -31.97)"/>
  <path id="path240" fill="#fefefe" d="M182 265.45c11.65.43 21.1 11.86 21.1 25.49s-9.44 24.71-21.1 24.71-21.09-11.43-21.09-25.5 9.47-25.15 21.09-24.7" transform="translate(0 -31.97)"/>
  <path id="path242" fill="#005da3" d="M182.08 264a22 22 0 0 1 16 8.31 29.28 29.28 0 0 1 6.51 18.61 28.34 28.34 0 0 1-6.52 18.4 21.07 21.07 0 0 1-16 7.74 20.78 20.78 0 0 1-16-8 29.76 29.76 0 0 1-6.51-18.94v-1.22a28.53 28.53 0 0 1 6.6-17.62 20.07 20.07 0 0 1 15.23-7.3h.71zm13.77 10.13a19.07 19.07 0 0 0-13.85-7.26h-.63a17.27 17.27 0 0 0-13.06 6.31 25.7 25.7 0 0 0-5.9 15.86v1.12a26.92 26.92 0 0 0 5.85 17.12 18 18 0 0 0 13.81 7 18.22 18.22 0 0 0 13.84-6.73 25.49 25.49 0 0 0 5.83-16.55 26.44 26.44 0 0 0-5.85-16.79" transform="translate(0 -31.97)"/>
  <path id="path244" fill="#005da3" d="M182.05 268.79a17.82 17.82 0 0 1 13 6.77 24.07 24.07 0 0 1 5.35 15.33v.05a23.27 23.27 0 0 1-5.35 15.06 17.09 17.09 0 0 1-13 6.28 17 17 0 0 1-13-6.53 24.41 24.41 0 0 1-5.35-15.57v-.95a23.41 23.41 0 0 1 5.41-14.52 16.39 16.39 0 0 1 12.41-6h.55zm12.22 7.43a16.78 16.78 0 0 0-12.26-6.4h-.51a15.35 15.35 0 0 0-11.63 5.6 22.44 22.44 0 0 0-5.17 13.89v.91a23.42 23.42 0 0 0 5.11 14.92 16 16 0 0 0 12.19 6.14 16.07 16.07 0 0 0 12.2-5.92 22.24 22.24 0 0 0 5.12-14.42v-.05a23 23 0 0 0-5.12-14.67zm-12.73-7.44a.53.53 0 0 1 .47.52l-.47-.52" transform="translate(0 -31.97)"/>
  <path id="path246" fill="#ffffff" d="M182 279.05c5.34.14 9.66 5.38 9.66 11.68s-4.32 11.39-9.66 11.32-9.66-5.29-9.66-11.68 4.32-11.46 9.66-11.32" transform="translate(0 -31.97)"/>
  <path id="path248" fill="#005da3" d="M182 278.48a9.8 9.8 0 0 1 7.26 3.73 13.44 13.44 0 0 1 3 8.52v.17a12.93 12.93 0 0 1-3 8.26 9.42 9.42 0 0 1-7.15 3.45H182a9.57 9.57 0 0 1-7.2-3.67 13.49 13.49 0 0 1-3-8.58V290a13.07 13.07 0 0 1 3-8.13 9.28 9.28 0 0 1 7-3.38h.2zm6.38 4.46a8.63 8.63 0 0 0-6.4-3.32h-.21a8.11 8.11 0 0 0-6.15 3 11.87 11.87 0 0 0-2.72 7.41v.36a12.35 12.35 0 0 0 2.7 7.86 8.46 8.46 0 0 0 6.34 3.25h.15a8.3 8.3 0 0 0 6.29-3.05 11.79 11.79 0 0 0 2.7-7.54v-.16a12.25 12.25 0 0 0-2.7-7.79" transform="translate(0 -31.97)"/>
  <path id="path250" fill="#b9d6ed" d="M182 281.24c4.32.11 7.82 4.35 7.82 9.45s-3.5 9.22-7.82 9.17-7.82-4.29-7.82-9.46 3.5-9.27 7.82-9.16" transform="translate(0 -31.97)"/>
  <path id="path252" fill="#005da3" d="M182.05 280.38a8.33 8.33 0 0 1 6.13 3.16 11.31 11.31 0 0 1 2.49 7.15v.18a10.84 10.84 0 0 1-2.5 6.91 8 8 0 0 1-6.09 2.94h-.17a8.16 8.16 0 0 1-6.1-3.11 11.31 11.31 0 0 1-2.49-7.2v-.3a10.91 10.91 0 0 1 2.51-6.81 7.87 7.87 0 0 1 6-2.87h.19zm4.85 4.25a6.63 6.63 0 0 0-4.89-2.54h-.16a6.21 6.21 0 0 0-4.68 2.28 9.17 9.17 0 0 0-2.1 5.76v.27a9.64 9.64 0 0 0 2.09 6.11A6.49 6.49 0 0 0 182 299h.13a6.34 6.34 0 0 0 4.79-2.34 9.11 9.11 0 0 0 2.09-5.85v-.13a9.56 9.56 0 0 0-2.11-6.05zm-13.54 5.68a.78.78 0 0 1 0-.21zm0-.24a.84.84 0 0 1 .86-.81zm2.52-6.82a.85.85 0 0 1 1.2-.08zm0 0" transform="translate(0 -31.97)"/>
  <path id="path254" fill="#fefefe" d="M195.73 225.25c2.52 2.06 5.07 4.12 7.59 6.17l7.61 6.16 1.86 5.56c.62 1.84 1.24 3.69 1.89 5.54H183.2l4.25-4h21.25c-.42-1.25-.84-2.51-1.27-3.77l-11.54-9.57q-10.54 4.23-21.08 8.55c-7 2.89-14.05 5.88-21.07 8.85l-28-1.37c-9.33-.45-18.66-.93-28-1.37-1.64-2.1-3.29-4.2-4.91-6.29s-3.26-4.2-4.88-6.29-3.27-4.19-4.89-6.29-3.25-4.19-4.87-6.29l-7.39-5.56c-2.46-1.84-4.93-3.7-7.38-5.57 6.12 1.1 12.28 2.18 18.43 3.27l28.46 3.02 28.47 3.08 28.47 3.08 28.48 3.08" transform="translate(0 -31.97)"/>
  <path id="path256" fill="#005da3" d="M196.47 224.39l7.57 6.15 3.8 3.08 3.81 3.09a1.05 1.05 0 0 1 .38.6l1.84 5.47.93 2.77c.3.89.62 1.8 1 2.76a1.15 1.15 0 0 1-.7 1.45 1.06 1.06 0 0 1-.46.07h-31.4a1.14 1.14 0 0 1-.78-2l3.76-3.55.49-.46a1.17 1.17 0 0 1 .84-.31h19.61l-.66-2-10.77-8.93-9.92 4c-3.81 1.54-7.35 3-10.53 4.29-5.94 2.45-11.82 4.94-17.68 7.42l-3.38 1.43a1.07 1.07 0 0 1-.49.09l-28-1.37-11.37-.56-16.63-.82a1.11 1.11 0 0 1-.84-.43l-1.71-2.18-3.18-4.09c-1.09-1.42-2.09-2.7-3.07-3.95l-1.81-2.33-1.83-2.36-.06-.07-3-3.86-2.34-3-2.43-3.14-7.28-5.47-1.45-1.09c-1.82-1.37-3.71-2.79-5.93-4.48a1.15 1.15 0 0 1-.22-1.6 1.16 1.16 0 0 1 1.1-.43l9.21 1.64L82 211.8l28.39 3.08L138.9 218l28.47 3 28.48 3.08a1.06 1.06 0 0 1 .62.27zm6.13 7.92l-7.33-6-28.14-3-28.47-3.08-28.47-3.08-28.39-3.08h-.13l-9.23-1.63-4.54-.8 2.1 1.59 1.45 1.09 7.36 5.54a.82.82 0 0 1 .25.24l2.53 3.26 2.35 3c1.06 1.37 2 2.63 3 3.85l.06.07 1.83 2.36 1.84 2.36c1.07 1.37 2.14 2.74 3.08 4 1.12 1.46 2.15 2.77 3.17 4.08l1.4 1.79 16.11.79 11.37.56 27.74 1.36 3.13-1.32c5.93-2.51 11.87-5 17.71-7.43 3.83-1.58 7.32-3 10.54-4.31l10.55-4.25a1.13 1.13 0 0 1 1.15.19l11.54 9.54a1.09 1.09 0 0 1 .35.51l1.27 3.78a1.14 1.14 0 0 1-1.08 1.5h-20.79l-.16.15-1.68 1.58h27l-.44-1.27-.93-2.77-1.7-5.21-3.56-2.88-3.8-3.08zM81.8 214.07" transform="translate(0 -31.97)"/>
  <path id="path258" fill="#005da3" d="M77.07 221.46a.85.85 0 0 1-.79-.92.87.87 0 0 1 .92-.79q25.2 2.07 50.53 4.66c16.9 1.69 33.65 3.48 50.45 5.28a.86.86 0 0 1 .74.66c.32 1.44.59 2.57.86 3.67s.59 2.34.94 3.69a.86.86 0 0 1-1.66.42c-.37-1.46-.68-2.64-.94-3.7-.24-1-.48-2-.74-3.12-16.7-1.79-33.33-3.57-49.83-5.22-16.71-1.68-33.5-3.26-50.49-4.65" transform="translate(0 -31.97)"/>
  <path id="path260" fill="#005da3" d="M86.93 222.07a.86.86 0 1 1 1.37-1c1.37 1.84 2.85 3.85 4.32 5.84 2.61 3.54 5.22 7.08 7.86 10.51l12.39.68 12.78.69 1.77.1 11 .59 12.62.66 6.57-2.58 6.75-2.64h.05l6.71-2.61 3.34-1.29 3.39-1.3a.87.87 0 0 1 1.11.5.86.86 0 0 1-.5 1.1l-3.39 1.3-3.33 1.28-6.72 2.6-6.75 2.63-6.75 2.65a.67.67 0 0 1-.35.06l-12.81-.67-11-.59-1.77-.1-12.78-.69-12.78-.7a.86.86 0 0 1-.63-.33c-2.8-3.62-5.46-7.24-8.13-10.86-1.39-1.89-2.78-3.78-4.31-5.82zm84.25 10.19a.85.85 0 0 1 1.06.5l-1.06-.5" transform="translate(0 -31.97)"/>
  <path id="path262" fill="#fefefe" d="M62.42 209.61l20 2.76-7.5-7.54-10.77-2-1.9.25.2 6.52" transform="translate(0 -31.97)"/>
  <path id="path264" fill="#005da3" d="M63.53 208.61l15.66 2.17-4.86-4.89L64.1 204l-.71.09zm18.7 4.89l-20-2.76a1.14 1.14 0 0 1-1-1.1l-.19-6.45a1.13 1.13 0 0 1 1-1.23l1.9-.26a1.09 1.09 0 0 1 .36 0l10.76 2a1.17 1.17 0 0 1 .61.32l7.47 7.51a1.16 1.16 0 0 1 .35 1 1.15 1.15 0 0 1-1.29 1" transform="translate(0 -31.97)"/>
  <path id="path266" fill="#b9d6ed" d="M128.1 255c1.47.06 2.67 1.57 2.67 3.4s-1.2 3.25-2.67 3.19-2.67-1.57-2.67-3.4 1.19-3.26 2.67-3.19" transform="translate(0 -31.97)"/>
  <path id="path268" fill="#005da3" d="M128.14 254.11a3.37 3.37 0 0 1 2.52 1.37 4.68 4.68 0 0 1 1 2.89v.24a4.41 4.41 0 0 1-1 2.63 3.19 3.19 0 0 1-2.43 1.18h-.12a3.35 3.35 0 0 1-2.53-1.35 4.71 4.71 0 0 1-1-2.9v-.24a4.35 4.35 0 0 1 1-2.64 3.15 3.15 0 0 1 2.42-1.19h.14zm1.18 2.43a1.73 1.73 0 0 0-1.26-.72H128a1.5 1.5 0 0 0-1.12.57 2.69 2.69 0 0 0-.59 1.62v.15a3 3 0 0 0 .59 1.84 1.73 1.73 0 0 0 1.25.71h.06a1.49 1.49 0 0 0 1.12-.57 2.72 2.72 0 0 0 .59-1.63v-.14a3 3 0 0 0-.59-1.83" transform="translate(0 -31.97)"/>
  <path id="path270" fill="#ffffff" d="M167.41 256.63l26.81 1q4.64 5.89 9.26 11.73c-1 0-2.07-.06-3.1-.09q-3.8-4.56-7.56-9.14l-24.1-.88c-2.49 2.94-5 5.88-7.47 8.83l-3.1-.11q4.62-5.7 9.26-11.34" transform="translate(0 -31.97)"/>
  <path id="path272" fill="#005da3" d="M167.44 255.77l26.81 1a.85.85 0 0 1 .64.32c3.65 4.64 6.39 8.1 9.14 11.58l.12.15a.86.86 0 0 1-.75 1.39l-1.54-.05h-1.51a.88.88 0 0 1-.64-.31l-3.79-4.57-3.51-4.28-11.4-.41-11.91-.44-.78.93c-2.26 2.66-4.5 5.3-6.42 7.58a.85.85 0 0 1-.68.3l-1.67-.05-1.43-.05a.86.86 0 0 1-.83-.88.88.88 0 0 1 .19-.51q4.67-5.76 9.24-11.33a.86.86 0 0 1 .72-.37zm26.35 2.7l-26-1q-4 4.86-7.91 9.68h1c2.24-2.66 4.2-5 6.15-7.26l1.06-1.25a.85.85 0 0 1 .68-.3l12.32.45 11.78.43a.84.84 0 0 1 .63.31l3.74 4.53 3.54 4.27h.89c-2.89-3.65-5.72-7.23-7.89-10" transform="translate(0 -31.97)"/>
  <path id="path274" fill="#b9d6ed" d="M134.55 255.24c1.47 0 2.67 1.57 2.67 3.38s-1.21 3.25-2.67 3.18-2.67-1.55-2.67-3.38 1.19-3.24 2.67-3.18" transform="translate(0 -31.97)"/>
  <path id="path276" fill="#005da3" d="M134.58 254.38a3.44 3.44 0 0 1 2.5 1.36 4.72 4.72 0 0 1 1 2.88v.25a4.35 4.35 0 0 1-1 2.63 3.18 3.18 0 0 1-2.42 1.16h-.12a3.39 3.39 0 0 1-2.54-1.36 4.68 4.68 0 0 1-1-2.88v-.22a4.31 4.31 0 0 1 1-2.65 3.2 3.2 0 0 1 2.44-1.17h.12zm1.18 2.42a1.71 1.71 0 0 0-1.24-.71h-.06a1.53 1.53 0 0 0-1.14.57 2.7 2.7 0 0 0-.59 1.63v.13a3 3 0 0 0 .6 1.83 1.73 1.73 0 0 0 1.25.7h.06a1.5 1.5 0 0 0 1.13-.56 2.69 2.69 0 0 0 .59-1.62v-.15a2.94 2.94 0 0 0-.6-1.82zm-4.76 1.4a.84.84 0 0 1 .86-.8l-.86.8" transform="translate(0 -31.97)"/>
  <path id="path278" fill="#b9d6ed" d="M149.21 256a3.14 3.14 0 0 1 2.66 3.35c0 1.8-1.2 3.19-2.66 3.14a3.12 3.12 0 0 1-2.67-3.35c0-1.8 1.19-3.2 2.67-3.14" transform="translate(0 -31.97)"/>
  <path id="path280" fill="#005da3" d="M149.24 255.15a3.43 3.43 0 0 1 2.52 1.36 4.58 4.58 0 0 1 1 2.85v.18a4.3 4.3 0 0 1-1 2.66 3.2 3.2 0 0 1-2.43 1.16h-.13a3.36 3.36 0 0 1-2.51-1.33 4.62 4.62 0 0 1-1-2.87v-.24a4.31 4.31 0 0 1 1-2.61 3.19 3.19 0 0 1 2.42-1.15h.13zm1.18 2.42a1.71 1.71 0 0 0-1.25-.71h-.06a1.53 1.53 0 0 0-1.13.56 2.6 2.6 0 0 0-.59 1.59v.14a2.86 2.86 0 0 0 .6 1.8 1.71 1.71 0 0 0 1.24.7h.06a1.52 1.52 0 0 0 1.14-.56 2.64 2.64 0 0 0 .59-1.61v-.11a2.86 2.86 0 0 0-.6-1.79" transform="translate(0 -31.97)"/>
  <path id="path282" fill="#b9d6ed" d="M155.65 256.28a3.12 3.12 0 0 1 2.66 3.34c0 1.79-1.19 3.18-2.66 3.12a3.12 3.12 0 0 1-2.67-3.33c0-1.8 1.2-3.19 2.67-3.13" transform="translate(0 -31.97)"/>
  <path id="path284" fill="#005da3" d="M155.69 255.43a3.39 3.39 0 0 1 2.51 1.34 4.55 4.55 0 0 1 1 2.85v.18a4.23 4.23 0 0 1-1 2.64 3.18 3.18 0 0 1-2.43 1.16h-.12a3.42 3.42 0 0 1-2.51-1.33 4.61 4.61 0 0 1-1-2.86v-.24a4.32 4.32 0 0 1 1-2.61l.06-.06a3.21 3.21 0 0 1 2.36-1.08h.14zm1.17 2.4a1.71 1.71 0 0 0-1.24-.7h-.07a1.46 1.46 0 0 0-1.08.51v.05a2.57 2.57 0 0 0-.59 1.58v.14a2.91 2.91 0 0 0 .59 1.79 1.72 1.72 0 0 0 1.25.69 1.48 1.48 0 0 0 1.14-.57 2.54 2.54 0 0 0 .58-1.59v-.11a2.85 2.85 0 0 0-.59-1.79" transform="translate(0 -31.97)"/>
  <path id="path286" fill="#fefefe" d="M100.48 262.3c11.65.44 21.08 12.54 21.08 27s-9.44 26.23-21.08 26.22-21.09-12.1-21.09-27 9.45-26.65 21.09-26.21" transform="translate(0 -31.97)"/>
  <path id="path288" fill="#005da3" d="M100.53 260.88c6.27.23 11.92 3.58 16 8.78a32.13 32.13 0 0 1 6.47 19.65 31.1 31.1 0 0 1-6.49 19.4c-4.08 5.07-9.73 8.21-16 8.21-6.28 0-12-3.24-16-8.47a32.62 32.62 0 0 1-6.48-20v-1.37a31.19 31.19 0 0 1 6.61-18.56c3.93-4.8 9.3-7.72 15.25-7.72h.68zm13.74 10.54c-3.57-4.57-8.46-7.49-13.84-7.7h-.58c-5.06 0-9.65 2.53-13 6.67a28.26 28.26 0 0 0-6 16.85v1.27a29.71 29.71 0 0 0 5.87 18.23c3.55 4.54 8.43 7.36 13.79 7.36 5.36 0 10.23-2.73 13.77-7.13a28.23 28.23 0 0 0 5.87-17.62 29.2 29.2 0 0 0-5.86-17.89" transform="translate(0 -31.97)"/>
  <path id="path290" fill="#005da3" d="M100.5 265.42c5.19.18 9.88 3 13.26 7.3a27 27 0 0 1 5.45 16.54v.07a26.15 26.15 0 0 1-5.46 16.29 17 17 0 0 1-13.23 6.8c-5.19 0-9.89-2.7-13.28-7.05a27.42 27.42 0 0 1-5.44-16.8v-1.08a26.17 26.17 0 0 1 5.53-15.65 16.4 16.4 0 0 1 12.67-6.43h.53zm12.5 7.93c-3.21-4.11-7.63-6.73-12.49-6.9H100a15.36 15.36 0 0 0-11.86 6.05 25.17 25.17 0 0 0-5.31 15v1A26.34 26.34 0 0 0 88 304.74c3.2 4.1 7.61 6.65 12.47 6.66A16 16 0 0 0 113 305a25.15 25.15 0 0 0 5.22-15.65v-.07a26 26 0 0 0-5.22-15.93zm-13-7.94a.5.5 0 0 1 .46.47l-.46-.47" transform="translate(0 -31.97)"/>
  <path id="path292" fill="#ffffff" d="M100.48 276.92c5.26.15 9.51 5.58 9.51 12.17s-4.26 11.89-9.51 11.83-9.48-5.5-9.48-12.19 4.27-12 9.52-11.81" transform="translate(0 -31.97)"/>
  <path id="path294" fill="#005da3" d="M100.5 276.35a9.51 9.51 0 0 1 7.16 3.89 14.47 14.47 0 0 1 2.9 8.85v.2a14 14 0 0 1-2.93 8.59 9.07 9.07 0 0 1-7 3.61h-.16a9.3 9.3 0 0 1-7.12-3.83 14.52 14.52 0 0 1-2.91-8.93v-.42a14 14 0 0 1 2.95-8.44 9 9 0 0 1 6.93-3.51h.22zm6.26 4.59a8.37 8.37 0 0 0-6.29-3.45h-.19a7.8 7.8 0 0 0-6 3.09 12.8 12.8 0 0 0-2.7 7.75v.4A13.36 13.36 0 0 0 94.2 297a8.18 8.18 0 0 0 6.25 3.39h.13a8 8 0 0 0 6.16-3.18 12.85 12.85 0 0 0 2.68-7.89v-.19a13.33 13.33 0 0 0-2.66-8.15" transform="translate(0 -31.97)"/>
  <path id="path296" fill="#b9d6ed" d="M100.48 279.2c4.26.11 7.7 4.53 7.7 9.86s-3.45 9.63-7.7 9.58-7.69-4.48-7.69-9.87 3.44-9.67 7.69-9.57" transform="translate(0 -31.97)"/>
  <path id="path298" fill="#005da3" d="M100.5 278.35a.86.86 0 0 1 .81.86zm0 0a8 8 0 0 1 6.07 3.3 12.11 12.11 0 0 1 2.44 7.41v.19a11.76 11.76 0 0 1-2.45 7.18 7.78 7.78 0 0 1-6 3.06h-.17a7.92 7.92 0 0 1-6-3.25 12.18 12.18 0 0 1-2.44-7.47v-.33a11.64 11.64 0 0 1 2.47-7.06 7.62 7.62 0 0 1 5.91-3h.21zm4.72 4.35a6.34 6.34 0 0 0-4.79-2.64h-.14a6 6 0 0 0-4.59 2.37 10 10 0 0 0-2.08 6v.3a10.49 10.49 0 0 0 2.08 6.42 6.22 6.22 0 0 0 4.71 2.59h.13a6 6 0 0 0 4.68-2.43 10 10 0 0 0 2.08-6.15v-.14a10.33 10.33 0 0 0-2.05-6.32zm-13.32 6a.72.72 0 0 1 .07-.25zm0-.28a.84.84 0 0 1 .86-.81l-.86.81" transform="translate(0 -31.97)"/>
  <path id="path300" fill="#b9d6ed" d="M99 282.45c2.83.06 5.12 3 5.12 6.55s-2.29 6.43-5.12 6.39-5.13-3-5.13-6.58 2.3-6.42 5.13-6.36" transform="translate(0 -31.97)"/>
  <path id="path302" fill="#005da3" d="M99 281.88a5.31 5.31 0 0 1 4.06 2.19 8.06 8.06 0 0 1 1.64 4.93v.12a7.83 7.83 0 0 1-1.63 4.8 5.16 5.16 0 0 1-4 2.05h-.12a5.33 5.33 0 0 1-4-2.18 8.11 8.11 0 0 1-1.63-5v-.19a7.81 7.81 0 0 1 1.68-4.72 5.11 5.11 0 0 1 4-2zm3.16 2.89A4.23 4.23 0 0 0 99 283h-.1a4 4 0 0 0-3.07 1.58 6.6 6.6 0 0 0-1.39 4v.17a7 7 0 0 0 1.38 4.27 4.22 4.22 0 0 0 3.18 1.8h.09a4 4 0 0 0 3.11-1.61 6.73 6.73 0 0 0 1.38-4.1V289a6.91 6.91 0 0 0-1.38-4.23" transform="translate(0 -31.97)"/>
  <path id="path304" fill="#b9d6ed" d="M180.55 284.52c2.79.07 5.06 2.81 5.06 6.12s-2.27 6-5.06 5.94-5.06-2.78-5.06-6.13 2.26-6 5.06-5.93" transform="translate(0 -31.97)"/>
  <path id="path306" fill="#005da3" d="M180.56 284a5.41 5.41 0 0 1 4 2.05 7.33 7.33 0 0 1 1.61 4.64v.16a7.1 7.1 0 0 1-1.63 4.45 5.17 5.17 0 0 1-3.94 1.9h-.13a5.35 5.35 0 0 1-3.95-2 7.39 7.39 0 0 1-1.61-4.67v-.18a7.08 7.08 0 0 1 1.63-4.44 5.13 5.13 0 0 1 3.9-1.87h.11zm3.13 2.78a4.28 4.28 0 0 0-3.15-1.64h-.09a4 4 0 0 0-3 1.48 5.94 5.94 0 0 0-1.36 3.72v.16a6.21 6.21 0 0 0 1.35 3.94 4.19 4.19 0 0 0 3.1 1.62h.1a4.07 4.07 0 0 0 3.08-1.5 5.92 5.92 0 0 0 1.35-3.73v-.14a6.17 6.17 0 0 0-1.35-3.91" transform="translate(0 -31.97)"/>
  <path id="path308" fill="#005da3" d="M108 245.78c1.77.1 3.51.18 5.25.26h.45a.87.87 0 0 1 .82.86v4.17a.87.87 0 0 1-.86.86h-.1l-2.82-.12-2.88-.13a.86.86 0 0 1-.82-.86v-4.2a.85.85 0 0 1 .85-.85zm4.81 1.95l-4-.2V250l2.06.09 2 .09zm.45-1.69a.81.81 0 0 1 .44.16l-.44-.16" transform="translate(0 -31.97)"/>
  <path id="path310" fill="#005da3" d="M116.86 246.22h.45l5.25.26a.85.85 0 0 1 .81.85v4.15a.87.87 0 0 1-.86.86h-.1l-2.82-.13-2.88-.12a.86.86 0 0 1-.82-.86v-4.17a.87.87 0 0 1 .86-.86zm4.81 1.95l-4-.2v2.46l2.06.08 2 .09v-2.43" transform="translate(0 -31.97)"/>
  <path id="path312" fill="#005da3" d="M153.71 248.22l5.29-2.42a.86.86 0 0 1 1.13.43v.1l.59 1.91.58 1.86a.84.84 0 0 1-.47 1l-3.42 1.56-1.89.87a.85.85 0 0 1-1.13-.42v-.1l-1.22-3.84a.85.85 0 0 1 .5-1.05zm5.15-.46l-3.79 1.72.7 2.19 1-.46 2.77-1.27-.36-1.13v-.06l-.31-1" transform="translate(0 -31.97)"/>
  <path id="path314" fill="#005da3" d="M174.29 239.83l3.24-1.34 2.12-.88a.85.85 0 0 1 1.11.47v.11l.56 1.85.59 1.89a.87.87 0 0 1-.51 1c-1.78.75-3.59 1.5-5.39 2.24a.86.86 0 0 1-1.12-.46v-.11l-.57-1.86-.57-1.91a.85.85 0 0 1 .54-1zm3.89.24l-2.56 1.06.35 1.17.3 1 3.82-1.59-.36-1.14-.3-1zm2.61-1.91zm-5.88 6.52" transform="translate(0 -31.97)"/>
  <path id="path316" fill="#005da3" d="M160.27 251.79a.87.87 0 0 1-1.12-.46.86.86 0 0 1 .47-1.12q8.74-3.65 18.19-7.52c6.24-2.55 12.27-5 18-7.31a.86.86 0 1 1 .64 1.59q-9.37 3.75-18 7.3c-5.82 2.39-11.9 4.9-18.18 7.52" transform="translate(0 -31.97)"/>
  <path id="path318" fill="#005da3" d="M114 258.3a.56.56 0 0 1-.54-.59.58.58 0 0 1 .59-.55l4.59.2a.57.57 0 1 1 0 1.14l-4.59-.2" transform="translate(0 -31.97)"/>
  <path id="path320" fill="#005da3" d="M115.82 260.67a.57.57 0 0 1-.55-.59.58.58 0 0 1 .59-.55l1.44.06 1.33.05a.57.57 0 0 1 .55.59.58.58 0 0 1-.59.55h-1.33l-1.44-.06" transform="translate(0 -31.97)"/>
  <path id="path322" fill="#005da3" d="M142.15 227.08a.86.86 0 1 1 1.65-.47l4 13.77a.86.86 0 0 1-.59 1.06.85.85 0 0 1-1.05-.59l-4-13.77" transform="translate(0 -31.97)"/>
  <path id="path324" fill="#005da3" d="M151.27 228.46a.85.85 0 0 1 .58-1.05.86.86 0 0 1 1.06.58l1.6 5.56 1.61 5.53a.85.85 0 0 1-1.64.48l-1.61-5.56-1.6-5.56" transform="translate(0 -31.97)"/>
  <path id="path326" fill="#005da3" d="M1.14 318.61a1.15 1.15 0 0 1 0-2.29H215a1.15 1.15 0 0 1 0 2.29H1.14" transform="translate(0 -31.97)"/>
  <path id="path328" fill="#b9d6ed" d="M129.94 300l25.11.36v-31l-25.11-1V300" transform="translate(0 -31.97)"/>
  <path id="path330" fill="#005da3" d="M131.09 298.87l11.41.16 11.41.17v-28.73l-11.46-.47-11.36-.46zm11.38 2.44l-12.47-.18h-.1a1.14 1.14 0 0 1-1.1-1.13v-31.69a1.14 1.14 0 0 1 1.18-1.09l12.55.52 12.45.5h.06a1.15 1.15 0 0 1 1.14 1.15v31a1.15 1.15 0 0 1-1.16 1.12l-12.56-.18" transform="translate(0 -31.97)"/>
  <path id="path332" fill="#005da3" d="M132.52 295.38a.57.57 0 0 1-.56-.58.58.58 0 0 1 .58-.56l11 .2 8.8.17a.57.57 0 0 1 0 1.13l-8.81-.16-11-.2" transform="translate(0 -31.97)"/>
  <path id="path334" fill="#005da3" d="M132.52 292a.58.58 0 0 1-.56-.58.57.57 0 0 1 .58-.56l19.82.42a.57.57 0 0 1 .55.58.56.56 0 0 1-.58.56l-19.81-.42" transform="translate(0 -31.97)"/>
  <path id="path336" fill="#005da3" d="M132.52 288.54a.56.56 0 0 1-.52-.54.57.57 0 0 1 .58-.55l10.43.25 9.39.22a.57.57 0 0 1 .55.58.56.56 0 0 1-.58.56l-9.37-.26-10.43-.26" transform="translate(0 -31.97)"/>
  <path id="path338" fill="#005da3" d="M132.52 285.13a.57.57 0 1 1 0-1.14l19.82.53a.57.57 0 0 1 0 1.14l-19.81-.53" transform="translate(0 -31.97)"/>
  <path id="path340" fill="#005da3" d="M132.51 281.72a.57.57 0 0 1 0-1.14l9.9.3 9.91.29a.57.57 0 0 1 0 1.14l-9.91-.29-9.91-.3" transform="translate(0 -31.97)"/>
  <path id="path342" fill="#005da3" d="M132.51 278.31a.58.58 0 0 1-.55-.59.56.56 0 0 1 .59-.55l19.81.64a.57.57 0 0 1 0 1.14l-19.82-.64" transform="translate(0 -31.97)"/>
  <path id="path344" fill="#005da3" d="M132.51 274.89a.57.57 0 1 1 0-1.14l19.81.7a.57.57 0 0 1 0 1.14l-19.82-.7" transform="translate(0 -31.97)"/>
  <path id="path346" fill="#005da3" d="M132.4 271.38l10.24.38 10 .38a.51.51 0 0 1 .5.51v25a.51.51 0 0 1-.51.51h-.05l-10-.17-10.17-.17a.5.5 0 0 1-.5-.51v-25.42a.52.52 0 0 1 .51-.52zm10.21 1.41l-9.74-.37v24.39l9.66.16 9.53.16v-24l-9.45-.35" transform="translate(0 -31.97)"/>
  <path id="path348" fill="#fefefe" d="M38.61 210.61L52.23 216l3.1 4.82h1.47l-.45-6.56L41 209.12l-2.43 1.49" transform="translate(0 -31.97)"/>
  <path id="path350" fill="#005da3" d="M40.51 210.45l12 4.79a.9.9 0 0 1 .41.33L55.8 220h.08l-.35-5-14.39-4.92zm11.15 6.28l-13.36-5.32a.92.92 0 0 1-.41-.35.85.85 0 0 1 .28-1.17l2.38-1.48a.85.85 0 0 1 .76-.1l15.27 5.21a.86.86 0 0 1 .62.77l.46 6.55v.07a.86.86 0 0 1-.87.84h-1.48a.89.89 0 0 1-.7-.39l-3-4.6" transform="translate(0 -31.97)"/>
  <path id="path352" fill="#fefefe" d="M63.09 203.07l-.54-.07H42l-29.41 4.57-9.72 5.29v4.38l1.68.69 8.09-4 29.31-4.57h21.1l.07-6.31" transform="translate(0 -31.97)"/>
  <path id="path354" fill="#005da3" d="M62.74 201.59l.54.07a1.42 1.42 0 0 1 1.23 1.43l-.07 6.31a1.42 1.42 0 0 1-1.44 1.41H42l-29 4.49-7.85 3.86a1.42 1.42 0 0 1-1.21.07l-1.57-.65a1.42 1.42 0 0 1-1-1.36v-4.38a1.43 1.43 0 0 1 .74-1.25l9.67-5.27a1.41 1.41 0 0 1 .51-.18l29.37-4.56H62.4a1.07 1.07 0 0 1 .34.01zm-1.09 2.83H42.08L13 208.92l-8.75 4.76v2.59l.2.08 7.51-3.7a2 2 0 0 1 .41-.13L41.7 208H61.57v-3.54" transform="translate(0 -31.97)"/>
  <path id="path356" fill="#fefefe" d="M63 254.47l16-7.05 11.77.65-21 25.67-17.35 4.41.3-4L63 254.47" transform="translate(0 -31.97)"/>
  <path id="path358" fill="#005da3" d="M62.61 253.69l16-7.05a.91.91 0 0 1 .39-.08l11.77.66a.86.86 0 0 1 .81.9.82.82 0 0 1-.2.5l-21 25.66a.8.8 0 0 1-.47.3L52.55 279a.87.87 0 0 1-1-.63.82.82 0 0 1 0-.27l.29-4a.91.91 0 0 1 .14-.4l10.22-19.62a.86.86 0 0 1 .41-.39zm16.5-5.41l-15.54 6.86-10.09 19.25-.2 2.63 15.93-4L89 248.83l-9.88-.55" transform="translate(0 -31.97)"/>
  <path id="path360" fill="#005da3" d="M87.1 247.76a.52.52 0 0 1 .73 0 .53.53 0 0 1 0 .72l-5.58 5.57-12.5 14a.56.56 0 0 1-.2.14l-16.94 6.61a.51.51 0 0 1-.66-.3.5.5 0 0 1 .29-.66l16.83-6.56 12.41-13.9 5.57-5.57" transform="translate(0 -31.97)"/>
  <path id="path362" fill="#005da3" d="M16.13 264l29.53-.42a.57.57 0 0 1 .58.56l-.1 12a.57.57 0 0 1-.57.56L15 277a.57.57 0 0 1-.57-.57v-.06l1.16-11.9a.56.56 0 0 1 .54-.47zm29 .72l-28.44.41-1 10.76 29.31-.3.09-10.89" transform="translate(0 -31.97)"/>
  <path id="path364" fill="#005da3" d="M62.89 254a.57.57 0 0 1 .06 1.14l-11.77.7-.87 8.51L50 276l2.54 11.7a.57.57 0 1 1-1.12.24l-2.55-11.75a.68.68 0 0 1 0-.14l.3-11.75.92-9a.57.57 0 0 1 .53-.54l12.27-.76" transform="translate(0 -31.97)"/>
  <path id="path366" fill="#005da3" d="M5.44 217.3a.57.57 0 0 1 .19-1.13l12.93 2.26a.57.57 0 0 1 .47.65.58.58 0 0 1-.66.47L5.44 217.3" transform="translate(0 -31.97)"/>
  <path id="path368" fill="#005da3" d="M122.5 250.88a.85.85 0 0 1 .78 1.52l-5.84 3a.85.85 0 0 1-1.15-.37.86.86 0 0 1 .37-1.15l5.84-3" transform="translate(0 -31.97)"/>
  <path id="path370" fill="#005da3" d="M116.83 250.43a.86.86 0 0 1 1.15.37.85.85 0 0 1-.37 1.15l-5.83 3a.86.86 0 0 1-1.16-.37.87.87 0 0 1 .37-1.15l5.84-3" transform="translate(0 -31.97)"/>
  <path id="path372" fill="#005da3" d="M113.87 250.43a.85.85 0 0 1 .78 1.52l-5.84 3a.85.85 0 0 1-1.15-.37.86.86 0 0 1 .37-1.15l5.84-3" transform="translate(0 -31.97)"/>
  <path id="path374" fill="#005da3" d="M155 252a.85.85 0 1 1 .78 1.52l-5.83 3a.87.87 0 0 1-1.16-.37.86.86 0 0 1 .37-1.15l5.84-3" transform="translate(0 -31.97)"/>
  <path id="path376" fill="#005da3" d="M153.38 248.6a.86.86 0 0 1 1.14.39.91.91 0 0 1-.39 1.19l-12.94 5.43c-.42.2-1.1 1-1.31.54a.86.86 0 0 1 .4-1.14l13.1-6.41" transform="translate(0 -31.97)"/>
  <path id="path378" fill="#fefefe" d="M78.38 267.08a.56.56 0 0 1-.8.08.57.57 0 0 1-.08-.8l13.31-16.08a.59.59 0 0 1 .5-.21l15.8.7a.54.54 0 0 1 .47.29l9.3 15.45a.57.57 0 0 1-.2.78.58.58 0 0 1-.78-.19l-9.15-15.21-15.24-.67zm29.19-16" transform="translate(0 -31.97)"/>
  <path id="path380" fill="#005da3" d="M44.62 289.17a.86.86 0 1 1 1.72 0v6a.86.86 0 0 1-1.72 0v-6" transform="translate(0 -31.97)"/>
  <path id="path382" fill="#005da3" d="M16.49 289.17a.86.86 0 1 1 1.72 0v6a.86.86 0 0 1-1.72 0v-6" transform="translate(0 -31.97)"/>
  <path id="path384" fill="#005da3" d="M66.85 269.86a1.29 1.29 0 0 1 1 .52 1.81 1.81 0 0 1 0 2.19 1.26 1.26 0 0 1-2 0 1.83 1.83 0 0 1 0-2.18 1.31 1.31 0 0 1 1-.53zm.22 1.16a.29.29 0 0 0-.22-.13.28.28 0 0 0-.22.12.71.71 0 0 0-.14.45.74.74 0 0 0 .13.44.25.25 0 0 0 .44 0 .72.72 0 0 0 .14-.46.71.71 0 0 0-.13-.44zm-.44 0" transform="translate(0 -31.97)"/>
  <path id="path386" fill="#005da3" d="M63.2 271a1.22 1.22 0 0 1 1 .48 1.67 1.67 0 0 1 .34 1 1.61 1.61 0 0 1-.35 1 1.25 1.25 0 0 1-1 .48 1.23 1.23 0 0 1-1-.48 1.69 1.69 0 0 1 0-2 1.19 1.19 0 0 1 1.01-.48zm.15 1.12a.22.22 0 0 0-.15-.09.19.19 0 0 0-.14.08.63.63 0 0 0-.11.38.6.6 0 0 0 .11.37.24.24 0 0 0 .15.09.22.22 0 0 0 .15-.09.61.61 0 0 0 .12-.37.64.64 0 0 0-.12-.38" transform="translate(0 -31.97)"/>
  <path id="path388" fill="#005da3" d="M9.65 270.29a.29.29 0 0 0-.22.13.83.83 0 0 0 0 .92.25.25 0 0 0 .44 0 .83.83 0 0 0 0-.92.29.29 0 0 0-.22-.13zm-1-.51a1.27 1.27 0 0 1 2 0 1.82 1.82 0 0 1 0 2.2 1.28 1.28 0 0 1-1 .51 1.29 1.29 0 0 1-1-.5 1.82 1.82 0 0 1 0-2.2" transform="translate(0 -31.97)"/>
  <path id="path390" fill="#005da3" d="M12.42 272.6a.22.22 0 0 0-.15.09.61.61 0 0 0-.12.38.61.61 0 0 0 .12.37.19.19 0 0 0 .14.08.22.22 0 0 0 .15-.09.61.61 0 0 0 .12-.37.64.64 0 0 0-.12-.38.17.17 0 0 0-.14-.08zm-.95-.55a1.22 1.22 0 0 1 .95-.48 1.19 1.19 0 0 1 .92.45 1.69 1.69 0 0 1 0 2 1.22 1.22 0 0 1-.95.48 1.19 1.19 0 0 1-.92-.45 1.69 1.69 0 0 1 0-2" transform="translate(0 -31.97)"/>
  <path id="path392" fill="#005da3" d="M15.4 272.55a.57.57 0 1 1-.74.86l-7.19-6.24a.57.57 0 0 1 .75-.87l7.18 6.25" transform="translate(0 -31.97)"/>
</svg>
